<?xml version="1.0" encoding="UTF-8" standalone="no"?>
<svg
   xmlns:dc="http://purl.org/dc/elements/1.1/"
   xmlns:cc="http://creativecommons.org/ns#"
   xmlns:rdf="http://www.w3.org/1999/02/22-rdf-syntax-ns#"
   xmlns:svg="http://www.w3.org/2000/svg"
   xmlns="http://www.w3.org/2000/svg"
   xmlns:sodipodi="http://sodipodi.sourceforge.net/DTD/sodipodi-0.dtd"
   xmlns:inkscape="http://www.inkscape.org/namespaces/inkscape"
   width="22"
   height="22"
   viewBox="0 0 22 22"
   version="1.1"
   id="svg12"
   sodipodi:docname="shade-inactive.svg"
   inkscape:version="0.92.2 2405546, 2018-03-11">
  <metadata
     id="metadata18">
    <rdf:RDF>
      <cc:Work
         rdf:about="">
        <dc:format>image/svg+xml</dc:format>
        <dc:type
           rdf:resource="http://purl.org/dc/dcmitype/StillImage" />
        <dc:title></dc:title>
      </cc:Work>
    </rdf:RDF>
  </metadata>
  <defs
     id="defs16" />
  <sodipodi:namedview
     pagecolor="#ffffff"
     bordercolor="#666666"
     borderopacity="1"
     objecttolerance="10"
     gridtolerance="10"
     guidetolerance="10"
     inkscape:pageopacity="0"
     inkscape:pageshadow="2"
     inkscape:window-width="1920"
     inkscape:window-height="1058"
     id="namedview14"
     showgrid="false"
     inkscape:zoom="11.313709"
     inkscape:cx="-2.7030681"
     inkscape:cy="11.929924"
     inkscape:window-x="1440"
     inkscape:window-y="0"
     inkscape:window-maximized="1"
     inkscape:current-layer="svg12" />
  <path
     style="fill:#181a21;stroke-width:0.61410707"
     d="m -0.06658659,1.331119 c 0,6.9598794 0,13.91976 0,20.879639 7.36928429,0 14.73856959,0 22.10785359,0 0,-7.369284 0,-14.7385688 0,-22.1078531 -7.369284,0 -14.7385693,0 -22.10785359,0 v 0.61410719 z"
     id="rect2"
     inkscape:connector-curvature="0" />
  <rect
     width="22"
     height="0.69063884"
     id="rect4"
     x="-0.067301288"
     y="0"
     style="fill:#cccccc;fill-opacity:0.1;stroke-width:0.69063884" />
  <g
     id="g10"
     transform="matrix(0.69063888,0,0,0.69063888,-0.06730106,0.10219059)"
     style="opacity:0.5;fill:#cccccc">
    <circle
       cx="16"
       cy="16"
       r="12"
       id="circle6"
       style="opacity:0" />
    <path
       d="M 10,18 11.41,19.41 16,14.82 20.59,19.41 22,18 16,12 Z"
       id="path8"
       inkscape:connector-curvature="0" />
  </g>
</svg>
