<svg xmlns="http://www.w3.org/2000/svg" width="32" height="32" viewBox="0 0 32 32">
  <rect width="32" height="32" fill="#232a35"/>
  <rect width="32" height="1" fill="#92a1ae" fill-opacity="0.1"/>
  <g fill="#92a1ae" opacity="0.7">
    <circle cx="16" cy="16" r="12" opacity="0"/>
    <path d="m22 14-1.41-1.41-4.59 4.59-4.59-4.59-1.41 1.41l6 6z"/>
  </g>
</svg>
