<?xml version="1.0" encoding="UTF-8" standalone="no"?>
<svg
   xmlns:osb="http://www.openswatchbook.org/uri/2009/osb"
   xmlns:dc="http://purl.org/dc/elements/1.1/"
   xmlns:cc="http://creativecommons.org/ns#"
   xmlns:rdf="http://www.w3.org/1999/02/22-rdf-syntax-ns#"
   xmlns:svg="http://www.w3.org/2000/svg"
   xmlns="http://www.w3.org/2000/svg"
   xmlns:xlink="http://www.w3.org/1999/xlink"
   xmlns:sodipodi="http://sodipodi.sourceforge.net/DTD/sodipodi-0.dtd"
   xmlns:inkscape="http://www.inkscape.org/namespaces/inkscape"
   id="svg3642"
   width="84"
   height="84"
   version="1"
   sodipodi:docname="decoration.svg"
   inkscape:version="0.92.2 2405546, 2018-03-11"
   enable-background="new">
  <metadata
     id="metadata58">
    <rdf:RDF>
      <cc:Work
         rdf:about="">
        <dc:format>image/svg+xml</dc:format>
        <dc:type
           rdf:resource="http://purl.org/dc/dcmitype/StillImage" />
        <dc:title />
      </cc:Work>
    </rdf:RDF>
  </metadata>
  <sodipodi:namedview
     pagecolor="#ffffff"
     bordercolor="#666666"
     borderopacity="1"
     objecttolerance="10"
     gridtolerance="10"
     guidetolerance="10"
     inkscape:pageopacity="0"
     inkscape:pageshadow="2"
     inkscape:window-width="1920"
     inkscape:window-height="1036"
     id="namedview56"
     showgrid="false"
     inkscape:zoom="45.254836"
     inkscape:cx="175.54536"
     inkscape:cy="71.677872"
     inkscape:window-x="1440"
     inkscape:window-y="22"
     inkscape:window-maximized="1"
     inkscape:current-layer="layer3"
     showguides="true"
     inkscape:guide-bbox="true">
    <sodipodi:guide
       position="64.214844,73.992188"
       orientation="0,1"
       id="guide5105"
       inkscape:locked="false" />
    <sodipodi:guide
       position="74,66.214844"
       orientation="1,0"
       id="guide5107"
       inkscape:locked="false" />
    <sodipodi:guide
       position="10.004456,14.52331"
       orientation="1,0"
       id="guide5109"
       inkscape:locked="false" />
    <sodipodi:guide
       position="12.722398,9.9989318"
       orientation="0,1"
       id="guide5113"
       inkscape:locked="false" />
    <sodipodi:guide
       position="9.515625,66.996094"
       orientation="0,1"
       id="guide5370"
       inkscape:locked="false" />
    <sodipodi:guide
       position="17.003906,72.683594"
       orientation="1,0"
       id="guide5372"
       inkscape:locked="false" />
    <sodipodi:guide
       position="66.992187,69.453125"
       orientation="1,0"
       inkscape:locked="false"
       id="guide5390" />
    <sodipodi:guide
       position="12.5,17"
       orientation="0,1"
       id="guide5458"
       inkscape:locked="false" />
    <sodipodi:guide
       position="126.67635,66.999331"
       orientation="1,0"
       id="guide887"
       inkscape:locked="false" />
    <sodipodi:guide
       position="176.6666,66.996094"
       orientation="1,0"
       id="guide889"
       inkscape:locked="false" />
  </sodipodi:namedview>
  <defs
     id="defs3644">
    <linearGradient
       id="linearGradient872"
       osb:paint="solid">
      <stop
         style="stop-color:#1e2127;stop-opacity:1;"
         offset="0"
         id="stop870" />
    </linearGradient>
    <linearGradient
       id="linearGradient4215-49">
      <stop
         id="stop4217-5"
         offset="0"
         style="stop-color:#000000;stop-opacity:0.184" />
      <stop
         id="stop4223-8"
         offset="1"
         style="stop-color:#000000;stop-opacity:0" />
    </linearGradient>
    <radialGradient
       id="radialGradient4275"
       cx="984"
       cy="905.362"
       r="8.5"
       fx="984"
       fy="905.362"
       gradientTransform="matrix(-1.6187099e-5,-1.4117565,1.4117775,-1.618734e-5,-1261.1539,1406.183)"
       gradientUnits="userSpaceOnUse"
       xlink:href="#linearGradient4215-49" />
    <linearGradient
       id="linearGradient4271"
       x1="83.6"
       x2="83.6"
       y1="-969.362"
       y2="-957.362"
       gradientTransform="matrix(0.71428571,0,0,1,-317.71429,1250.3622)"
       gradientUnits="userSpaceOnUse"
       xlink:href="#linearGradient4215-49" />
    <radialGradient
       id="radialGradient3382"
       cx="984"
       cy="905.362"
       r="8.5"
       fx="984"
       fy="905.362"
       gradientTransform="matrix(7.8257357e-6,1.411771,-1.4117668,7.8257123e-6,1345.1525,-1322.1898)"
       gradientUnits="userSpaceOnUse"
       xlink:href="#linearGradient4215-49" />
    <linearGradient
       id="linearGradient4259"
       x1="83.6"
       x2="83.6"
       y1="-969.362"
       y2="-957.362"
       gradientTransform="matrix(0.71428571,0,0,1,-317.71429,1250.3622)"
       gradientUnits="userSpaceOnUse"
       xlink:href="#linearGradient4215-49" />
    <linearGradient
       id="linearGradient4452"
       x1="-260"
       x2="-260"
       y1="281"
       y2="293"
       gradientUnits="userSpaceOnUse"
       xlink:href="#linearGradient4215-49" />
    <linearGradient
       id="linearGradient4283"
       x1="83.6"
       x2="83.6"
       y1="-969.362"
       y2="-957.362"
       gradientTransform="matrix(0.71428571,0,0,1,-317.71429,1250.3622)"
       gradientUnits="userSpaceOnUse"
       xlink:href="#linearGradient4215-49" />
    <radialGradient
       id="radialGradient4255"
       cx="982.909"
       cy="906.453"
       r="8.5"
       fx="982.909"
       fy="906.453"
       gradientTransform="matrix(1.4117577,5.5406049e-6,-5.5406032e-6,1.4117573,-1320.6245,-1262.6973)"
       gradientUnits="userSpaceOnUse"
       xlink:href="#linearGradient4215-49" />
    <radialGradient
       id="radialGradient4263"
       cx="984"
       cy="905.362"
       r="8.5"
       fx="984"
       fy="905.362"
       gradientTransform="matrix(-1.411767,-9.899721e-6,9.8996845e-6,-1.4117618,1406.1698,1345.1655)"
       gradientUnits="userSpaceOnUse"
       xlink:href="#linearGradient4215-49" />
    <radialGradient
       id="radialGradient4255-2"
       cx="982.909"
       cy="906.453"
       r="8.5"
       fx="982.909"
       fy="906.453"
       gradientTransform="matrix(1.4117577,5.5406049e-6,-5.5406032e-6,1.4117573,-1320.6245,-1262.6973)"
       gradientUnits="userSpaceOnUse"
       xlink:href="#linearGradient4215-49" />
    <radialGradient
       id="radialGradient4275-3"
       cx="984"
       cy="905.362"
       r="8.5"
       fx="984"
       fy="905.362"
       gradientTransform="matrix(-1.6187099e-5,-1.4117565,1.4117775,-1.618734e-5,-1261.1539,1406.183)"
       gradientUnits="userSpaceOnUse"
       xlink:href="#linearGradient4215-49" />
    <radialGradient
       id="radialGradient3382-8"
       cx="984"
       cy="905.362"
       r="8.5"
       fx="984"
       fy="905.362"
       gradientTransform="matrix(7.8257357e-6,1.411771,-1.4117668,7.8257123e-6,1345.1525,-1322.1898)"
       gradientUnits="userSpaceOnUse"
       xlink:href="#linearGradient4215-49" />
    <radialGradient
       id="radialGradient4263-7"
       cx="984"
       cy="905.362"
       r="8.5"
       fx="984"
       fy="905.362"
       gradientTransform="matrix(-1.411767,-9.899721e-6,9.8996845e-6,-1.4117618,1406.1698,1345.1655)"
       gradientUnits="userSpaceOnUse"
       xlink:href="#linearGradient4215-49" />
  </defs>
  <g
     inkscape:groupmode="layer"
     id="layer3"
     inkscape:label="layer"
     style="display:inline;opacity:1">
    <rect
       style="display:inline;opacity:1;fill:#1e2127;fill-opacity:1;fill-rule:evenodd;stroke:none;stroke-width:0.05035105;stroke-miterlimit:4;stroke-dasharray:none;stroke-opacity:1"
       id="decoration-center"
       width="50.013672"
       height="50.017578"
       x="17.003906"
       y="17.040346" />
    <g
       id="decoration-topright"
       style="display:inline;opacity:1"
       transform="translate(2.5e-7,0.0286277)">
      <path
         inkscape:connector-curvature="0"
         d="m 66.994141,10.003906 v 6.970703 H 74 V 15.03125 c 0,-2.785006 -2.242338,-5.027344 -5.027344,-5.027344 z"
         style="display:inline;opacity:1;fill:#1e2127;fill-opacity:1;fill-rule:evenodd;stroke:none;stroke-width:0.1007021;stroke-miterlimit:4;stroke-dasharray:none;stroke-opacity:1"
         id="decoration-topright-1-2" />
      <path
         inkscape:connector-curvature="0"
         id="decoration-topright-1-6"
         d="m 66.992187,10.007812 v 2.041016 h 1.136718 c 2.098041,0 3.78711,1.68907 3.78711,3.787109 v 1.142578 h 2.082031 v -1.943359 c 0,-2.785006 -2.242338,-5.027344 -5.027344,-5.027344 z"
         style="display:inline;opacity:1;fill:#61afef;fill-opacity:1;fill-rule:evenodd;stroke:none;stroke-width:0.1007021;stroke-miterlimit:4;stroke-dasharray:none;stroke-opacity:1" />
    </g>
    <g
       transform="rotate(-90,42.031891,42.006501)"
       style="display:inline;opacity:1"
       id="decoration-topleft">
      <path
         inkscape:connector-curvature="0"
         d="m 66.994141,10.003906 v 6.970703 H 74 V 15.03125 c 0,-2.785006 -2.242338,-5.027344 -5.027344,-5.027344 z"
         style="display:inline;opacity:1;fill:#1e2127;fill-opacity:1;fill-rule:evenodd;stroke:none;stroke-width:0.1007021;stroke-miterlimit:4;stroke-dasharray:none;stroke-opacity:1"
         id="decoration-topright-1-2-9" />
      <path
         inkscape:connector-curvature="0"
         id="decoration-topright-1-6-2"
         d="m 66.992187,10.007812 v 2.041016 h 1.136718 c 2.098041,0 3.78711,1.68907 3.78711,3.787109 v 1.142578 h 2.082031 v -1.943359 c 0,-2.785006 -2.242338,-5.027344 -5.027344,-5.027344 z"
         style="display:inline;opacity:1;fill:#61afef;fill-opacity:1;fill-rule:evenodd;stroke:none;stroke-width:0.1007021;stroke-miterlimit:4;stroke-dasharray:none;stroke-opacity:1" />
    </g>
    <g
       transform="rotate(-180,42.001251,42.005525)"
       style="display:inline;opacity:1"
       id="decoration-bottomleft"
       inkscape:label="#decoration-bottomleft">
      <path
         inkscape:connector-curvature="0"
         d="m 66.994141,10.003906 v 6.970703 H 74 V 15.03125 c 0,-2.785006 -2.242338,-5.027344 -5.027344,-5.027344 z"
         style="display:inline;opacity:1;fill:#1e2127;fill-opacity:1;fill-rule:evenodd;stroke:none;stroke-width:0.1007021;stroke-miterlimit:4;stroke-dasharray:none;stroke-opacity:1"
         id="decoration-topright-1-2-9-2" />
      <path
         inkscape:connector-curvature="0"
         id="decoration-topright-1-6-2-3"
         d="m 66.992187,10.007812 v 2.041016 h 1.136718 c 2.098041,0 3.78711,1.68907 3.78711,3.787109 v 1.142578 h 2.082031 v -1.943359 c 0,-2.785006 -2.242338,-5.027344 -5.027344,-5.027344 z"
         style="display:inline;opacity:1;fill:#61afef;fill-opacity:1;fill-rule:evenodd;stroke:none;stroke-width:0.1007021;stroke-miterlimit:4;stroke-dasharray:none;stroke-opacity:1" />
    </g>
    <g
       transform="rotate(90,41.982757,42.021149)"
       style="display:inline;opacity:1"
       id="decoration-bottomright">
      <path
         inkscape:connector-curvature="0"
         d="m 66.994141,10.003906 v 6.970703 H 74 V 15.03125 c 0,-2.785006 -2.242338,-5.027344 -5.027344,-5.027344 z"
         style="display:inline;opacity:1;fill:#1e2127;fill-opacity:1;fill-rule:evenodd;stroke:none;stroke-width:0.1007021;stroke-miterlimit:4;stroke-dasharray:none;stroke-opacity:1"
         id="decoration-topright-1-2-9-2-5" />
      <path
         inkscape:connector-curvature="0"
         id="decoration-topright-1-6-2-3-9"
         d="m 66.992187,10.007812 v 2.041016 h 1.136718 c 2.098041,0 3.78711,1.68907 3.78711,3.787109 v 1.142578 h 2.082031 v -1.943359 c 0,-2.785006 -2.242338,-5.027344 -5.027344,-5.027344 z"
         style="display:inline;opacity:1;fill:#61afef;fill-opacity:1;fill-rule:evenodd;stroke:none;stroke-width:0.1007021;stroke-miterlimit:4;stroke-dasharray:none;stroke-opacity:1" />
    </g>
    <g
       id="decoration-right"
       inkscape:label="#decoration-right"
       style="display:inline;opacity:1"
       transform="translate(-2.5e-7,0.0325334)">
      <rect
         y="17.007156"
         x="66.992188"
         height="49.992844"
         width="7.0078125"
         id="decoration-right-1"
         style="display:inline;opacity:1;fill:#1e2127;fill-opacity:1;fill-rule:evenodd;stroke:none;stroke-width:0.05035105;stroke-miterlimit:4;stroke-dasharray:none;stroke-opacity:1" />
      <rect
         y="17.003906"
         x="71.955078"
         height="49.994141"
         width="2.0449209"
         id="decoration-right-2"
         style="display:inline;opacity:1;fill:#61afef;fill-opacity:1;fill-rule:evenodd;stroke:none;stroke-width:0.02719952;stroke-miterlimit:4;stroke-dasharray:none;stroke-opacity:1" />
    </g>
    <g
       id="decoration-top"
       style="display:inline;opacity:1"
       transform="translate(-2.5e-7,0.0325334)">
      <rect
         y="10.003906"
         x="17.003906"
         height="7.0032506"
         width="49.988281"
         id="decoration-top-1"
         style="display:inline;opacity:1;fill:#1e2127;fill-opacity:1;fill-rule:evenodd;stroke:none;stroke-width:0.05035105;stroke-miterlimit:4;stroke-dasharray:none;stroke-opacity:1" />
      <rect
         transform="rotate(90)"
         style="display:inline;opacity:1;fill:#61afef;fill-opacity:1;fill-rule:evenodd;stroke:none;stroke-width:0.02719952;stroke-miterlimit:4;stroke-dasharray:none;stroke-opacity:1"
         id="decoration-right-2-2"
         width="2.0449209"
         height="49.994141"
         x="10.007812"
         y="-66.992188" />
    </g>
    <g
       id="decoration-left"
       style="display:inline;opacity:1"
       transform="translate(-2.5e-7,0.0325334)">
      <rect
         y="16.971373"
         x="10.003906"
         height="50.017578"
         width="7.0000005"
         id="decoration-left-1"
         style="display:inline;opacity:1;fill:#1e2127;fill-opacity:1;fill-rule:evenodd;stroke:none;stroke-width:0.05035105;stroke-miterlimit:4;stroke-dasharray:none;stroke-opacity:1" />
      <rect
         y="17.003906"
         x="10.004456"
         height="49.994141"
         width="2.0449209"
         id="decoration-right-2-2-8"
         style="display:inline;opacity:1;fill:#61afef;fill-opacity:1;fill-rule:evenodd;stroke:none;stroke-width:0.02719952;stroke-miterlimit:4;stroke-dasharray:none;stroke-opacity:1" />
    </g>
    <g
       id="decoration-bottom"
       style="display:inline;opacity:1"
       transform="translate(-2.5e-7,0.0325334)">
      <rect
         ry="0"
         y="67"
         x="17.003906"
         height="7.0010681"
         width="49.988281"
         id="decoration-bottom-1"
         style="display:inline;opacity:1;fill:#1e2127;fill-opacity:1;fill-rule:evenodd;stroke:none;stroke-width:0.05035105;stroke-miterlimit:4;stroke-dasharray:none;stroke-opacity:1" />
      <rect
         transform="rotate(90)"
         style="display:inline;opacity:1;fill:#61afef;fill-opacity:1;fill-rule:evenodd;stroke:none;stroke-width:0.02719952;stroke-miterlimit:4;stroke-dasharray:none;stroke-opacity:1"
         id="decoration-right-2-2-8-9"
         width="2.0449209"
         height="49.994141"
         x="71.956146"
         y="-66.992188" />
    </g>
    <rect
       style="display:inline;opacity:1;fill:#1e2127;fill-opacity:1;fill-rule:evenodd;stroke:none;stroke-width:0.05035105;stroke-miterlimit:4;stroke-dasharray:none;stroke-opacity:1"
       id="decoration-inactive-center"
       width="50.013672"
       height="50.017578"
       x="126.67635"
       y="17.003906" />
    <g
       id="decoration-inactive-topright"
       style="display:inline;opacity:1"
       transform="translate(109.67244,-0.00781268)">
      <path
         inkscape:connector-curvature="0"
         d="m 66.994141,10.003906 v 6.970703 H 74 V 15.03125 c 0,-2.785006 -2.242338,-5.027344 -5.027344,-5.027344 z"
         style="display:inline;opacity:1;fill:#1e2127;fill-opacity:1;fill-rule:evenodd;stroke:none;stroke-width:0.1007021;stroke-miterlimit:4;stroke-dasharray:none;stroke-opacity:1"
         id="decoration-topright-1-2-6" />
      <path
         inkscape:connector-curvature="0"
         id="decoration-topright-1-6-1"
         d="m 66.992187,10.007812 v 2.041016 h 1.136718 c 2.098041,0 3.78711,1.68907 3.78711,3.787109 v 1.142578 h 2.082031 v -1.943359 c 0,-2.785006 -2.242338,-5.027344 -5.027344,-5.027344 z"
         style="display:inline;opacity:1;fill:#a6a6a6;fill-opacity:1;fill-rule:evenodd;stroke:none;stroke-width:0.1007021;stroke-miterlimit:4;stroke-dasharray:none;stroke-opacity:1" />
    </g>
    <g
       transform="rotate(-90,96.849893,-12.847941)"
       style="display:inline;opacity:1"
       id="decoration-inactive-topleft">
      <path
         inkscape:connector-curvature="0"
         d="m 66.994141,10.003906 v 6.970703 H 74 V 15.03125 c 0,-2.785006 -2.242338,-5.027344 -5.027344,-5.027344 z"
         style="display:inline;opacity:1;fill:#1e2127;fill-opacity:1;fill-rule:evenodd;stroke:none;stroke-width:0.1007021;stroke-miterlimit:4;stroke-dasharray:none;stroke-opacity:1"
         id="decoration-topright-1-2-9-9" />
      <path
         inkscape:connector-curvature="0"
         id="decoration-topright-1-6-2-31"
         d="m 66.992187,10.007812 v 2.041016 h 1.136718 c 2.098041,0 3.78711,1.68907 3.78711,3.787109 v 1.142578 h 2.082031 v -1.943359 c 0,-2.785006 -2.242338,-5.027344 -5.027344,-5.027344 z"
         style="display:inline;opacity:1;fill:#a6a6a6;fill-opacity:1;fill-rule:evenodd;stroke:none;stroke-width:0.1007021;stroke-miterlimit:4;stroke-dasharray:none;stroke-opacity:1" />
    </g>
    <g
       transform="rotate(-180,96.837473,41.987305)"
       style="display:inline;opacity:1"
       id="decoration-inactive-bottomleft"
       inkscape:label="#decoration-inactive-bottomleft">
      <path
         inkscape:connector-curvature="0"
         d="m 66.994141,10.003906 v 6.970703 H 74 V 15.03125 c 0,-2.785006 -2.242338,-5.027344 -5.027344,-5.027344 z"
         style="display:inline;opacity:1;fill:#1e2127;fill-opacity:1;fill-rule:evenodd;stroke:none;stroke-width:0.1007021;stroke-miterlimit:4;stroke-dasharray:none;stroke-opacity:1"
         id="decoration-topright-1-2-9-2-4" />
      <path
         inkscape:connector-curvature="0"
         id="decoration-topright-1-6-2-3-7"
         d="m 66.992187,10.007812 v 2.041016 h 1.136718 c 2.098041,0 3.78711,1.68907 3.78711,3.787109 v 1.142578 h 2.082031 v -1.943359 c 0,-2.785006 -2.242338,-5.027344 -5.027344,-5.027344 z"
         style="display:inline;opacity:1;fill:#a6a6a6;fill-opacity:1;fill-rule:evenodd;stroke:none;stroke-width:0.1007021;stroke-miterlimit:4;stroke-dasharray:none;stroke-opacity:1" />
    </g>
    <g
       transform="rotate(90,96.837199,96.839151)"
       style="display:inline;opacity:1"
       id="decoration-inactive-bottomright">
      <path
         inkscape:connector-curvature="0"
         d="m 66.994141,10.003906 v 6.970703 H 74 V 15.03125 c 0,-2.785006 -2.242338,-5.027344 -5.027344,-5.027344 z"
         style="display:inline;opacity:1;fill:#1e2127;fill-opacity:1;fill-rule:evenodd;stroke:none;stroke-width:0.1007021;stroke-miterlimit:4;stroke-dasharray:none;stroke-opacity:1"
         id="decoration-topright-1-2-9-2-5-4" />
      <path
         inkscape:connector-curvature="0"
         id="decoration-topright-1-6-2-3-9-5"
         d="m 66.992187,10.007812 v 2.041016 h 1.136718 c 2.098041,0 3.78711,1.68907 3.78711,3.787109 v 1.142578 h 2.082031 v -1.943359 c 0,-2.785006 -2.242338,-5.027344 -5.027344,-5.027344 z"
         style="display:inline;opacity:1;fill:#a6a6a6;fill-opacity:1;fill-rule:evenodd;stroke:none;stroke-width:0.1007021;stroke-miterlimit:4;stroke-dasharray:none;stroke-opacity:1" />
    </g>
    <g
       transform="translate(109.67244,-0.00390668)"
       style="display:inline;opacity:1"
       id="decoration-inactive-right"
       inkscape:label="#decoration-inactive-right">
      <rect
         y="17.007156"
         x="66.992188"
         height="49.992844"
         width="7.0078125"
         id="decoration-right-1-3"
         style="display:inline;opacity:1;fill:#1e2127;fill-opacity:1;fill-rule:evenodd;stroke:none;stroke-width:0.05035105;stroke-miterlimit:4;stroke-dasharray:none;stroke-opacity:1" />
      <rect
         y="17.003906"
         x="71.955078"
         height="49.994141"
         width="2.0449209"
         id="decoration-right-2-6"
         style="display:inline;opacity:1;fill:#a6a6a6;fill-opacity:1;fill-rule:evenodd;stroke:none;stroke-width:0.02719952;stroke-miterlimit:4;stroke-dasharray:none;stroke-opacity:1" />
    </g>
    <g
       transform="translate(109.67244,-0.00390668)"
       style="display:inline;opacity:1"
       id="decoration-inactive-top">
      <rect
         y="10.003906"
         x="17.003906"
         height="7.0032506"
         width="49.988281"
         id="decoration-top-1-6"
         style="display:inline;opacity:1;fill:#1e2127;fill-opacity:1;fill-rule:evenodd;stroke:none;stroke-width:0.05035105;stroke-miterlimit:4;stroke-dasharray:none;stroke-opacity:1" />
      <rect
         transform="rotate(90)"
         style="display:inline;opacity:1;fill:#a6a6a6;fill-opacity:1;fill-rule:evenodd;stroke:none;stroke-width:0.02719952;stroke-miterlimit:4;stroke-dasharray:none;stroke-opacity:1"
         id="decoration-right-2-2-3"
         width="2.0449209"
         height="49.994141"
         x="10.007812"
         y="-66.992188" />
    </g>
    <g
       transform="translate(109.67244,-0.00390668)"
       style="display:inline;opacity:1"
       id="decoration-inactive-left">
      <rect
         y="16.971373"
         x="10.003906"
         height="50.017578"
         width="7.0000005"
         id="decoration-left-1-0"
         style="display:inline;opacity:1;fill:#1e2127;fill-opacity:1;fill-rule:evenodd;stroke:none;stroke-width:0.05035105;stroke-miterlimit:4;stroke-dasharray:none;stroke-opacity:1" />
      <rect
         y="17.003906"
         x="10.004456"
         height="49.994141"
         width="2.0449209"
         id="decoration-right-2-2-8-6"
         style="display:inline;opacity:1;fill:#a6a6a6;fill-opacity:1;fill-rule:evenodd;stroke:none;stroke-width:0.02719952;stroke-miterlimit:4;stroke-dasharray:none;stroke-opacity:1" />
    </g>
    <g
       transform="translate(109.67244,-0.00390668)"
       style="display:inline;opacity:1"
       id="decoration-inactive-bottom">
      <rect
         ry="0"
         y="67"
         x="17.003906"
         height="7.0010681"
         width="49.988281"
         id="decoration-bottom-1-5"
         style="display:inline;opacity:1;fill:#1e2127;fill-opacity:1;fill-rule:evenodd;stroke:none;stroke-width:0.05035105;stroke-miterlimit:4;stroke-dasharray:none;stroke-opacity:1" />
      <rect
         transform="rotate(90)"
         style="display:inline;opacity:1;fill:#a6a6a6;fill-opacity:1;fill-rule:evenodd;stroke:none;stroke-width:0.02719952;stroke-miterlimit:4;stroke-dasharray:none;stroke-opacity:1"
         id="decoration-right-2-2-8-9-4"
         width="2.0449209"
         height="49.994141"
         x="71.956146"
         y="-66.992188" />
    </g>
    <rect
       style="fill:#1e2127;fill-opacity:1;stroke:none;stroke-width:0.11043943;stroke-linecap:square;stroke-linejoin:bevel;stroke-miterlimit:4;stroke-dasharray:none;stroke-opacity:1"
       id="innerborder-top"
       width="7.5098815"
       height="0.44175771"
       x="94.745049"
       y="30.74012" />
    <rect
       style="fill:#1e2127;fill-opacity:1;stroke:none;stroke-width:0.44175771"
       id="innerborder-topleft"
       width="0.44175771"
       height="0.44175771"
       x="94.303291"
       y="30.74012" />
    <rect
       style="fill:#1e2127;fill-opacity:1;stroke:none;stroke-width:0.44175771"
       id="innerborder-topright"
       width="0.44175771"
       height="0.44175771"
       x="102.25493"
       y="30.74012" />
    <rect
       style="fill:#1e2127;fill-opacity:1;stroke:none;stroke-width:0.44175771"
       id="innerborder-right"
       width="0.44175771"
       height="4.8593349"
       x="102.25493"
       y="31.181877" />
    <rect
       style="fill:#1e2127;fill-opacity:1;stroke:none;stroke-width:0.44175771"
       id="innerborder-bottomright"
       width="0.44175771"
       height="0.44175771"
       x="102.25493"
       y="36.041214" />
    <rect
       style="fill:#1e2127;fill-opacity:1;stroke:none;stroke-width:0.44175771"
       id="innerborder-bottom"
       width="7.5098815"
       height="0.44175771"
       x="94.745049"
       y="36.041214" />
    <rect
       style="fill:#1e2127;fill-opacity:1;stroke:none;stroke-width:0.44175771"
       id="innerborder-bottomleft"
       width="0.44175771"
       height="0.44175771"
       x="94.303291"
       y="36.041214" />
    <rect
       style="fill:#1e2127;fill-opacity:1;stroke:none;stroke-width:0.44175771"
       id="innerborder-left"
       width="0.44175771"
       height="4.8593349"
       x="94.303291"
       y="31.181877" />
    <rect
       style="fill:#1e2127;fill-opacity:1;stroke:none;stroke-width:0.44175771"
       id="innerborder-center"
       width="7.5098815"
       height="4.8593349"
       x="94.745049"
       y="31.181877" />
    <rect
       style="fill:#1e2127;fill-opacity:1;stroke:none;stroke-width:0.44175771"
       id="innerborder-inactive-top"
       width="7.5098815"
       height="0.44175771"
       x="94.745049"
       y="40.017033" />
    <rect
       style="fill:#1e2127;fill-opacity:1;stroke:none;stroke-width:0.44175771"
       id="innerborder-inactive-topleft"
       width="0.44175771"
       height="0.44175771"
       x="94.303291"
       y="40.017033" />
    <rect
       style="fill:#1e2127;fill-opacity:1;stroke:none;stroke-width:0.44175771"
       id="innerborder-inactive-topright"
       width="0.44175771"
       height="0.44175771"
       x="102.25493"
       y="40.017033" />
    <rect
       style="fill:#1e2127;fill-opacity:1;stroke:none;stroke-width:0.44175771"
       id="innerborder-inactive-right"
       width="0.44175771"
       height="4.8593349"
       x="102.25493"
       y="40.45879" />
    <rect
       style="fill:#1e2127;fill-opacity:1;stroke:none;stroke-width:0.44175771"
       id="innerborder-inactive-bottomright"
       width="0.44175771"
       height="0.44175771"
       x="102.25493"
       y="45.318127" />
    <rect
       style="fill:#1e2127;fill-opacity:1;stroke:none;stroke-width:0.44175771"
       id="innerborder-inactive-bottom"
       width="7.5098815"
       height="0.44175771"
       x="94.745049"
       y="45.318127" />
    <rect
       style="fill:#1e2127;fill-opacity:1;stroke:none;stroke-width:0.44175771"
       id="innerborder-inactive-bottomleft"
       width="0.44175771"
       height="0.44175771"
       x="94.303291"
       y="45.318127" />
    <rect
       style="fill:#1e2127;fill-opacity:1;stroke:none;stroke-width:0.44175771"
       id="innerborder-inactive-left"
       width="0.44175771"
       height="4.8593349"
       x="94.303291"
       y="40.45879" />
    <rect
       style="fill:#1e2127;fill-opacity:1;stroke:none;stroke-width:0.44175771"
       id="innerborder-inactive-center"
       width="7.5098815"
       height="4.8593349"
       x="94.745049"
       y="40.45879" />
  </g>
  <g
     inkscape:groupmode="layer"
     id="layer4"
     inkscape:label="layer 1"
     style="display:none" />
  <g
     inkscape:groupmode="layer"
     id="layer1"
     inkscape:label="Layer 3"
     style="display:none;opacity:0.66000001" />
  <g
     inkscape:groupmode="layer"
     id="layer2"
     inkscape:label="Layer 2"
     style="display:none;opacity:0.66000001" />
</svg>
