<?xml version="1.0" encoding="UTF-8" standalone="no"?>
<svg
   xmlns:dc="http://purl.org/dc/elements/1.1/"
   xmlns:cc="http://creativecommons.org/ns#"
   xmlns:rdf="http://www.w3.org/1999/02/22-rdf-syntax-ns#"
   xmlns:svg="http://www.w3.org/2000/svg"
   xmlns="http://www.w3.org/2000/svg"
   xmlns:sodipodi="http://sodipodi.sourceforge.net/DTD/sodipodi-0.dtd"
   xmlns:inkscape="http://www.inkscape.org/namespaces/inkscape"
   width="150"
   height="150"
   viewBox="0 0 149.99998 150"
   id="svg2"
   version="1.1"
   inkscape:version="0.91 r13725"
   sodipodi:docname="launcher_icon_edge_150.svg">
  <metadata
     id="metadata16">
    <rdf:RDF>
      <cc:Work
         rdf:about="">
        <dc:format>image/svg+xml</dc:format>
        <dc:type
           rdf:resource="http://purl.org/dc/dcmitype/StillImage" />
      </cc:Work>
    </rdf:RDF>
  </metadata>
  <sodipodi:namedview
     pagecolor="#272b33"
     bordercolor="#666666"
     borderopacity="1"
     objecttolerance="10"
     gridtolerance="10"
     guidetolerance="10"
     inkscape:pageopacity="0"
     inkscape:pageshadow="2"
     inkscape:window-width="1301"
     inkscape:window-height="650"
     id="namedview14"
     showgrid="true"
     inkscape:snap-bbox="true"
     inkscape:zoom="3.1466667"
     inkscape:cx="43.369154"
     inkscape:cy="69.620822"
     inkscape:window-x="65"
     inkscape:window-y="24"
     inkscape:window-maximized="1"
     inkscape:current-layer="svg2">
    <inkscape:grid
       type="xygrid"
       id="grid2993" />
  </sodipodi:namedview>
  <defs
     id="defs4">
    <clipPath
       id="clipPath6">
      <path
         d="m 440,80.683594 c -1.84957,0 -3.31641,1.466834 -3.31641,3.316406 l 0,44 c 0,1.84957 1.46684,3.31641 3.31641,3.31641 l 44,0 c 1.84957,0 3.31641,-1.46684 3.31641,-3.31641 l 0,-44 c 0,-1.849572 -1.46684,-3.316406 -3.31641,-3.316406 l -44,0 z"
         id="path8" />
    </clipPath>
    <clipPath
       id="clipPath10">
      <rect
         y="316"
         x="353"
         height="148"
         width="148"
         opacity="0.8"
         fill="#ff00ff"
         color="#000000"
         rx="12"
         id="rect12" />
    </clipPath>
  </defs>
</svg>
