<?xml version="1.0" encoding="UTF-8" standalone="no"?>
<svg
   xmlns:dc="http://purl.org/dc/elements/1.1/"
   xmlns:cc="http://creativecommons.org/ns#"
   xmlns:rdf="http://www.w3.org/1999/02/22-rdf-syntax-ns#"
   xmlns:svg="http://www.w3.org/2000/svg"
   xmlns="http://www.w3.org/2000/svg"
   xmlns:sodipodi="http://sodipodi.sourceforge.net/DTD/sodipodi-0.dtd"
   xmlns:inkscape="http://www.inkscape.org/namespaces/inkscape"
   width="2"
   height="22"
   viewBox="0 0 2 22"
   version="1.1"
   id="svg6"
   sodipodi:docname="toplr_inactive.svg"
   inkscape:version="0.92.2 2405546, 2018-03-11">
  <metadata
     id="metadata12">
    <rdf:RDF>
      <cc:Work
         rdf:about="">
        <dc:format>image/svg+xml</dc:format>
        <dc:type
           rdf:resource="http://purl.org/dc/dcmitype/StillImage" />
        <dc:title />
      </cc:Work>
    </rdf:RDF>
  </metadata>
  <defs
     id="defs10" />
  <sodipodi:namedview
     pagecolor="#ffffff"
     bordercolor="#666666"
     borderopacity="1"
     objecttolerance="10"
     gridtolerance="10"
     guidetolerance="10"
     inkscape:pageopacity="0"
     inkscape:pageshadow="2"
     inkscape:window-width="1920"
     inkscape:window-height="1058"
     id="namedview8"
     showgrid="false"
     inkscape:zoom="128"
     inkscape:cx="4.6769797"
     inkscape:cy="20.159403"
     inkscape:window-x="1440"
     inkscape:window-y="0"
     inkscape:window-maximized="1"
     inkscape:current-layer="svg6" />
  <rect
     width="2"
     height="21.999006"
     id="rect2"
     x="0"
     y="0.00099311769"
     style="fill:#6992c5;stroke-width:0.8291375;fill-opacity:1" />
  <rect
     width="2"
     height="1"
     id="rect4"
     x="0"
     y="-10"
     style="fill:#cccccc;fill-opacity:0.1" />
  <rect
     style="fill:#696969;stroke-width:0.8291375;fill-opacity:1"
     y="0.00099311769"
     x="0"
     id="rect822"
     height="21.999006"
     width="2" />
</svg>
