<svg xmlns="http://www.w3.org/2000/svg" width="144" height="144" viewBox="0 0 72 72">
  <circle cx="24" cy="6" r="2" fill="#afc4dc"/>
  <circle cx="32" cy="6" r="2" fill="#afc4dc"/>
  <circle cx="40" cy="6" r="2" fill="#afc4dc"/>
  <circle cx="48" cy="6" r="2" fill="#afc4dc"/>
  <circle cx="36" cy="66" r="2" fill="#afc4dc"/>
</svg>
