<?xml version="1.0" encoding="UTF-8" standalone="no"?>
<!-- Created with Inkscape (http://www.inkscape.org/) -->

<svg
   xmlns:dc="http://purl.org/dc/elements/1.1/"
   xmlns:cc="http://creativecommons.org/ns#"
   xmlns:rdf="http://www.w3.org/1999/02/22-rdf-syntax-ns#"
   xmlns:svg="http://www.w3.org/2000/svg"
   xmlns="http://www.w3.org/2000/svg"
   xmlns:sodipodi="http://sodipodi.sourceforge.net/DTD/sodipodi-0.dtd"
   xmlns:inkscape="http://www.inkscape.org/namespaces/inkscape"
   width="32.000011"
   height="22.999983"
   viewBox="0 0 32.000011 22.999983"
   id="svg5386"
   version="1.1"
   inkscape:version="0.91 r13725"
   sodipodi:docname="desklet.svg">
  <defs
     id="defs5388">
    <clipPath
       clipPathUnits="userSpaceOnUse"
       id="clipPath4180">
      <rect
         transform="scale(1,-1)"
         y="-1052.1622"
         x="-7"
         height="22.999983"
         width="48"
         id="rect4182"
         style="opacity:0.45;fill:#000000;fill-opacity:1;stroke:none;stroke-width:1;stroke-linecap:round;stroke-linejoin:miter;stroke-miterlimit:4;stroke-dasharray:none;stroke-dashoffset:0;stroke-opacity:1" />
    </clipPath>
  </defs>
  <sodipodi:namedview
     id="base"
     pagecolor="#1c1f28"
     bordercolor="#666666"
     borderopacity="1.0"
     inkscape:pageopacity="0.0"
     inkscape:pageshadow="2"
     inkscape:zoom="11.313708"
     inkscape:cx="22.308942"
     inkscape:cy="7.633471"
     inkscape:document-units="px"
     inkscape:current-layer="layer1"
     showgrid="true"
     units="px"
     inkscape:snap-bbox="true"
     inkscape:bbox-paths="true"
     inkscape:bbox-nodes="true"
     inkscape:snap-bbox-edge-midpoints="true"
     showguides="false"
     fit-margin-top="0"
     fit-margin-left="0"
     fit-margin-right="0"
     fit-margin-bottom="0">
    <inkscape:grid
       type="xygrid"
       id="grid5954"
       originx="1.0975551e-05"
       originy="-9.0000174" />
  </sodipodi:namedview>
  <metadata
     id="metadata5391">
    <rdf:RDF>
      <cc:Work
         rdf:about="">
        <dc:format>image/svg+xml</dc:format>
        <dc:type
           rdf:resource="http://purl.org/dc/dcmitype/StillImage" />
        <dc:title></dc:title>
      </cc:Work>
    </rdf:RDF>
  </metadata>
  <g
     inkscape:label="Ebene 1"
     inkscape:groupmode="layer"
     id="layer1"
     transform="translate(1.0975552e-5,-1020.3622)">
    <g
       id="g4146"
       clip-path="url(#clipPath4180)"
       transform="translate(0,-8.8000161)">
      <rect
         ry="1.9999999"
         rx="2.0000005"
         y="1024.8622"
         x="4.5"
         height="21.999889"
         width="23"
         id="rect4164-4-3"
         style="display:inline;opacity:0.72000002;fill:none;fill-opacity:1;stroke:#000000;stroke-width:1;stroke-linecap:round;stroke-linejoin:miter;stroke-miterlimit:4;stroke-dasharray:none;stroke-dashoffset:0;stroke-opacity:1" />
      <rect
         ry="1.4"
         rx="1.4"
         y="1025.3622"
         x="5"
         height="20.999971"
         width="22"
         id="rect4164"
         style="display:inline;opacity:0.95;fill:#3c4049;fill-opacity:1;stroke:none;stroke-width:1;stroke-linecap:round;stroke-linejoin:miter;stroke-miterlimit:4;stroke-dasharray:none;stroke-dashoffset:0;stroke-opacity:1" />
      <g
         style="display:inline;opacity:0.75"
         id="g4271"
         transform="translate(-425.99995,658.36226)">
        <rect
           style="display:inline;opacity:0.02000002;fill:none;fill-opacity:1;stroke:#000000;stroke-width:0.99999988;stroke-linecap:round;stroke-linejoin:miter;stroke-miterlimit:4;stroke-dasharray:none;stroke-dashoffset:0;stroke-opacity:1"
           id="rect4164-4-7-5-3-8-8"
           width="31.000011"
           height="31"
           x="426.49994"
           y="362.49994"
           rx="8"
           ry="8" />
        <rect
           style="display:inline;opacity:0.07000002;fill:none;fill-opacity:1;stroke:#000000;stroke-width:0.99999982;stroke-linecap:round;stroke-linejoin:miter;stroke-miterlimit:4;stroke-dasharray:none;stroke-dashoffset:0;stroke-opacity:1"
           id="rect4164-4-7-5-3-8"
           width="29.000011"
           height="28.999996"
           x="427.49994"
           y="363.49997"
           rx="7"
           ry="6.999999" />
        <rect
           style="display:inline;opacity:0.12999998;fill:none;fill-opacity:1;stroke:#000000;stroke-width:0.99999988;stroke-linecap:round;stroke-linejoin:miter;stroke-miterlimit:4;stroke-dasharray:none;stroke-dashoffset:0;stroke-opacity:1"
           id="rect4164-4-7-5-3"
           width="27.000011"
           height="26.999998"
           x="428.49994"
           y="364.49994"
           rx="6"
           ry="6" />
        <rect
           style="display:inline;opacity:0.2;fill:none;fill-opacity:1;stroke:#000000;stroke-width:1;stroke-linecap:round;stroke-linejoin:miter;stroke-miterlimit:4;stroke-dasharray:none;stroke-dashoffset:0;stroke-opacity:1"
           id="rect4164-4-7-5"
           width="24.999981"
           height="24.999998"
           x="429.49997"
           y="365.49997"
           rx="4.9999995"
           ry="5" />
        <path
           sodipodi:nodetypes="csscssc"
           inkscape:connector-curvature="0"
           style="display:inline;opacity:0.25;fill:none;fill-opacity:1;stroke:#000000;stroke-width:1;stroke-linecap:round;stroke-linejoin:miter;stroke-miterlimit:4;stroke-dasharray:none;stroke-dashoffset:0;stroke-opacity:1"
           d="M 431.64844,388.30469 C 432.37319,389.0416 433.37997,389.5 434.5,389.5 l 15.00023,0 c 1.12003,0 2.12681,-0.4584 2.85156,-1.19531 -0.2591,0.12217 -0.5451,0.19531 -0.85156,0.19531 l -19.00023,0 c -0.30646,0 -0.59246,-0.0731 -0.85156,-0.19531 z"
           id="rect4164-4-7"
           transform="translate(-6.1035156e-5,0)" />
      </g>
    </g>
  </g>
</svg>
