<svg xmlns="http://www.w3.org/2000/svg" width="2" height="32" viewBox="0 0 2 32">
  <rect width="2" height="32" fill="#12151a"/>
  <rect width="2" height="1" fill="#afc4dc" fill-opacity="0.1"/>
</svg>
