<svg xmlns="http://www.w3.org/2000/svg" width="32" height="32" viewBox="0 0 32 32">
  <rect width="32" height="32" fill="#1a1f2e"/>
  <rect width="32" height="1" fill="#ccccee" fill-opacity="0.1"/>
  <g fill="#ccccee" opacity="0.5">
    <circle cx="16" cy="16" r="12" opacity="0"/>
    <path d="m12 12v8h8v-8zm2 2h4v4h-4z"/>
  </g>
</svg>
