<svg xmlns="http://www.w3.org/2000/svg" width="32" height="32" viewBox="0 0 32 32">
  <rect width="32" height="32" fill="#191d2a"/>
  <rect width="32" height="1" fill="#ccccee" fill-opacity="0.1"/>
  <g fill="#ccccee">
    <circle cx="16" cy="16" r="12" opacity="0.08"/>
    <path d="m12 18h8v2h-8z"/>
  </g>
</svg>
