<svg xmlns="http://www.w3.org/2000/svg" width="144" height="144" viewBox="0 0 72 72">
  <circle cx="28" cy="6" r="2" fill="#cccccc"/>
  <circle cx="36" cy="6" r="2" fill="#cccccc"/>
  <circle cx="44" cy="6" r="2" fill="#cccccc"/>
  <circle cx="36" cy="66" r="2" fill="#cccccc"/>
</svg>
