<?xml version="1.0" encoding="UTF-8" standalone="no"?>
<svg
   xmlns:dc="http://purl.org/dc/elements/1.1/"
   xmlns:cc="http://creativecommons.org/ns#"
   xmlns:rdf="http://www.w3.org/1999/02/22-rdf-syntax-ns#"
   xmlns:svg="http://www.w3.org/2000/svg"
   xmlns="http://www.w3.org/2000/svg"
   xmlns:sodipodi="http://sodipodi.sourceforge.net/DTD/sodipodi-0.dtd"
   xmlns:inkscape="http://www.inkscape.org/namespaces/inkscape"
   width="22"
   height="22"
   viewBox="0 0 22 22"
   version="1.1"
   id="svg12"
   sodipodi:docname="hide-active.svg"
   inkscape:version="0.92.2 2405546, 2018-03-11">
  <metadata
     id="metadata18">
    <rdf:RDF>
      <cc:Work
         rdf:about="">
        <dc:format>image/svg+xml</dc:format>
        <dc:type
           rdf:resource="http://purl.org/dc/dcmitype/StillImage" />
        <dc:title />
      </cc:Work>
    </rdf:RDF>
  </metadata>
  <defs
     id="defs16" />
  <sodipodi:namedview
     pagecolor="#ffffff"
     bordercolor="#666666"
     borderopacity="1"
     objecttolerance="10"
     gridtolerance="10"
     guidetolerance="10"
     inkscape:pageopacity="0"
     inkscape:pageshadow="2"
     inkscape:window-width="1920"
     inkscape:window-height="1026"
     id="namedview14"
     showgrid="false"
     inkscape:zoom="29.5"
     inkscape:cx="3.4503779"
     inkscape:cy="9.7625741"
     inkscape:window-x="1440"
     inkscape:window-y="32"
     inkscape:window-maximized="1"
     inkscape:current-layer="svg12"
     showguides="true"
     inkscape:guide-bbox="true" />
  <rect
     width="22.033899"
     height="22.033899"
     id="rect2"
     x="0"
     y="-0.033898305"
     style="fill:#1c202a;stroke-width:0.68855935;fill-opacity:1" />
  <rect
     width="22.033899"
     height="2.0317798"
     id="rect4"
     x="0"
     y="-0.033898305"
     style="fill:#4d9de0;fill-opacity:1;stroke-width:1.18279374" />
  <path
     style="fill:none;stroke:#cccccc;stroke-width:1.5;stroke-linecap:round;stroke-linejoin:round;stroke-miterlimit:4;stroke-dasharray:none;stroke-opacity:1"
     d="M 6.7167625,8.8109409 11.033951,13.128129 15.351139,8.8109409"
     id="path821"
     inkscape:connector-curvature="0" />
  <g
     id="g834">
    <rect
       y="18"
       x="0"
       height="4"
       width="21.997353"
       id="rect820"
       style="opacity:1;fill:#15171d;fill-opacity:1;stroke:none;stroke-width:1.9369545;stroke-linecap:round;stroke-linejoin:round;stroke-miterlimit:4;stroke-dasharray:none;stroke-opacity:1;paint-order:normal" />
    <rect
       y="20.2"
       x="0"
       height="1.8"
       width="21.997353"
       id="rect823"
       style="opacity:1;fill:#1c202a;fill-opacity:1;stroke:none;stroke-width:2.45846462;stroke-linecap:round;stroke-linejoin:round;stroke-miterlimit:4;stroke-dasharray:none;stroke-opacity:1;paint-order:normal" />
  </g>
</svg>
