<?xml version="1.0" encoding="UTF-8" standalone="no"?>
<!-- Created with Inkscape (http://www.inkscape.org/) -->

<svg
   xmlns:dc="http://purl.org/dc/elements/1.1/"
   xmlns:cc="http://creativecommons.org/ns#"
   xmlns:rdf="http://www.w3.org/1999/02/22-rdf-syntax-ns#"
   xmlns:svg="http://www.w3.org/2000/svg"
   xmlns="http://www.w3.org/2000/svg"
   xmlns:sodipodi="http://sodipodi.sourceforge.net/DTD/sodipodi-0.dtd"
   xmlns:inkscape="http://www.inkscape.org/namespaces/inkscape"
   width="24"
   height="24"
   id="svg4306"
   version="1.1"
   inkscape:version="0.91 r13725"
   sodipodi:docname="minimize_dash_prelight.svg"
   style="enable-background:new">
  <defs
     id="defs4308">
    <linearGradient
       id="linearGradient3770">
      <stop
         style="stop-color:#000000;stop-opacity:0.62827224;"
         offset="0"
         id="stop3772" />
      <stop
         style="stop-color:#000000;stop-opacity:0.49803922;"
         offset="1"
         id="stop3774" />
    </linearGradient>
    <linearGradient
       id="linearGradient4882">
      <stop
         style="stop-color:#1c1f28;stop-opacity:1;"
         offset="0"
         id="stop4884" />
      <stop
         style="stop-color:#1c1f28;stop-opacity:0;"
         offset="1"
         id="stop4886" />
    </linearGradient>
    <linearGradient
       id="linearGradient3784-6">
      <stop
         style="stop-color:#1c1f28;stop-opacity:0.21568628;"
         offset="0"
         id="stop3786-4" />
      <stop
         style="stop-color:#1c1f28;stop-opacity:0;"
         offset="1"
         id="stop3788-6" />
    </linearGradient>
    <linearGradient
       id="linearGradient4892">
      <stop
         id="stop4894"
         offset="0"
         style="stop-color:#2f3a42;stop-opacity:1;" />
      <stop
         id="stop4896"
         offset="1"
         style="stop-color:#1d242a;stop-opacity:1;" />
    </linearGradient>
    <linearGradient
       id="linearGradient4882-4">
      <stop
         id="stop4884-9"
         offset="0"
         style="stop-color:#728495;stop-opacity:1;" />
      <stop
         id="stop4886-9"
         offset="1"
         style="stop-color:#617c95;stop-opacity:0;" />
    </linearGradient>
  </defs>
  <sodipodi:namedview
     id="base"
     pagecolor="#f0f1f2"
     bordercolor="#666666"
     borderopacity="1.0"
     inkscape:pageopacity="1"
     inkscape:pageshadow="2"
     inkscape:zoom="32.000001"
     inkscape:cx="10.337718"
     inkscape:cy="9.0639316"
     inkscape:document-units="px"
     inkscape:current-layer="layer1"
     showgrid="true"
     showguides="true"
     inkscape:guide-bbox="true"
     inkscape:window-width="1366"
     inkscape:window-height="721"
     inkscape:window-x="0"
     inkscape:window-y="25"
     inkscape:window-maximized="1"
     inkscape:snap-bbox="true"
     inkscape:snap-global="true"
     inkscape:snap-bbox-midpoints="false"
     inkscape:bbox-paths="true"
     inkscape:bbox-nodes="true"
     inkscape:snap-bbox-edge-midpoints="true">
    <inkscape:grid
       type="xygrid"
       id="grid4314"
       empspacing="5"
       visible="true"
       enabled="true"
       snapvisiblegridlinesonly="true" />
    <sodipodi:guide
       orientation="1,0"
       position="12,12"
       id="guide4316" />
    <sodipodi:guide
       orientation="0,1"
       position="12,12"
       id="guide4318" />
  </sodipodi:namedview>
  <metadata
     id="metadata4311">
    <rdf:RDF>
      <cc:Work
         rdf:about="">
        <dc:format>image/svg+xml</dc:format>
        <dc:type
           rdf:resource="http://purl.org/dc/dcmitype/StillImage" />
        <dc:title></dc:title>
      </cc:Work>
    </rdf:RDF>
  </metadata>
  <g
     inkscape:label="Ebene 1"
     inkscape:groupmode="layer"
     id="layer1"
     transform="translate(0,-1028.3622)">
    <g
       style="display:inline"
       id="titlebutton-min-hover-dark"
       inkscape:label="#g6308"
       transform="translate(-480,1218)">
      <g
         id="g4909-3-7"
         style="display:inline;opacity:1"
         transform="translate(-781,-432.63782)">
        <ellipse
           cy="255"
           cx="1273"
           style="display:inline;opacity:0.45;fill:#5f697f;fill-opacity:1;stroke:none;stroke-width:0;stroke-linecap:butt;stroke-linejoin:miter;stroke-miterlimit:4;stroke-dasharray:none;stroke-dashoffset:0;stroke-opacity:1"
           id="path4068-7-5-9-6-7-2-1-6-1"
           rx="6"
           ry="6.0000005" />
        <path
           style="display:inline;opacity:0.37000002;fill:#15171c;fill-opacity:1;stroke:none;stroke-width:0;stroke-linecap:butt;stroke-linejoin:miter;stroke-miterlimit:4;stroke-dasharray:none;stroke-dashoffset:0;stroke-opacity:1"
           d="m 1273,248 a 7,7 0 0 0 -7,7 7,7 0 0 0 7,7 7,7 0 0 0 7,-7 7,7 0 0 0 -7,-7 z m 0,1 a 6,6 0 0 1 6,6 6,6 0 0 1 -6,6 6,6 0 0 1 -6,-6 6,6 0 0 1 6,-6 z"
           id="path4068-7-5-9-6-7-2-5-23-4-3"
           inkscape:connector-curvature="0" />
        <g
           style="display:inline;opacity:1;fill:#c0e3ff;fill-opacity:1"
           id="g4834-0-4-5"
           transform="translate(1265,247)">
          <g
             transform="translate(-81.0002,-967)"
             style="display:inline;fill:#c0e3ff;fill-opacity:1"
             inkscape:label="status"
             id="layer9-3-4-15-6" />
          <g
             transform="translate(-81.0002,-967)"
             inkscape:label="devices"
             id="layer10-4-1-8-3"
             style="fill:#c0e3ff;fill-opacity:1" />
          <g
             transform="translate(-81.0002,-967)"
             inkscape:label="apps"
             id="layer11-2-6-4-9"
             style="fill:#c0e3ff;fill-opacity:1" />
          <g
             transform="translate(-81.0002,-967)"
             inkscape:label="places"
             id="layer13-5-4-8-0"
             style="fill:#c0e3ff;fill-opacity:1" />
          <g
             transform="translate(-81.0002,-967)"
             inkscape:label="mimetypes"
             id="layer14-6-0-8-2"
             style="fill:#c0e3ff;fill-opacity:1" />
          <g
             transform="translate(-81.0002,-967)"
             style="display:inline;fill:#c0e3ff;fill-opacity:1"
             inkscape:label="emblems"
             id="layer15-52-1-7-5" />
          <g
             transform="translate(-81.0002,-967)"
             style="display:inline;fill:#c0e3ff;fill-opacity:1"
             inkscape:label="emotes"
             id="g71291-3-9-9-9" />
          <g
             transform="translate(-81.0002,-967)"
             style="display:inline;fill:#c0e3ff;fill-opacity:1"
             inkscape:label="categories"
             id="g4953-8-2-7-8" />
          <g
             transform="translate(-81.0002,-967)"
             style="display:inline;fill:#c0e3ff;fill-opacity:1"
             inkscape:label="actions"
             id="layer12-45-6-2-7">
            <path
               sodipodi:nodetypes="ccccc"
               style="color:#000000;font-style:normal;font-variant:normal;font-weight:normal;font-stretch:normal;font-size:medium;line-height:normal;font-family:Sans;-inkscape-font-specification:Sans;text-indent:0;text-align:start;text-decoration:none;text-decoration-line:none;letter-spacing:normal;word-spacing:normal;text-transform:none;direction:ltr;block-progression:tb;writing-mode:lr-tb;baseline-shift:baseline;text-anchor:start;display:inline;overflow:visible;visibility:visible;opacity:1;fill:#9f9fa1;fill-opacity:1;stroke:none;stroke-width:2;marker:none;enable-background:accumulate"
               id="rect9057-8-2-3"
               d="m 86.0002,974 0,2 6,0 0,-2 z"
               inkscape:connector-curvature="0" />
          </g>
        </g>
      </g>
      <rect
         y="-185.63782"
         x="484"
         height="16"
         width="16"
         id="rect17883-11-4-0"
         style="display:inline;opacity:1;fill:none;fill-opacity:1;stroke:none;stroke-width:1;stroke-linecap:butt;stroke-linejoin:miter;stroke-miterlimit:4;stroke-dasharray:none;stroke-dashoffset:0;stroke-opacity:0" />
    </g>
  </g>
</svg>
