<?xml version="1.0" encoding="UTF-8" standalone="no"?>
<svg
   xmlns:dc="http://purl.org/dc/elements/1.1/"
   xmlns:cc="http://creativecommons.org/ns#"
   xmlns:rdf="http://www.w3.org/1999/02/22-rdf-syntax-ns#"
   xmlns:svg="http://www.w3.org/2000/svg"
   xmlns="http://www.w3.org/2000/svg"
   xmlns:sodipodi="http://sodipodi.sourceforge.net/DTD/sodipodi-0.dtd"
   xmlns:inkscape="http://www.inkscape.org/namespaces/inkscape"
   width="18"
   height="5"
   viewBox="0 0 18 5"
   version="1.1"
   id="svg12"
   sodipodi:docname="shade-active.svg"
   inkscape:version="0.92.2 2405546, 2018-03-11">
  <metadata
     id="metadata18">
    <rdf:RDF>
      <cc:Work
         rdf:about="">
        <dc:format>image/svg+xml</dc:format>
        <dc:type
           rdf:resource="http://purl.org/dc/dcmitype/StillImage" />
        <dc:title></dc:title>
      </cc:Work>
    </rdf:RDF>
  </metadata>
  <defs
     id="defs16" />
  <sodipodi:namedview
     pagecolor="#ffffff"
     bordercolor="#666666"
     borderopacity="1"
     objecttolerance="10"
     gridtolerance="10"
     guidetolerance="10"
     inkscape:pageopacity="0"
     inkscape:pageshadow="2"
     inkscape:window-width="1920"
     inkscape:window-height="1058"
     id="namedview14"
     showgrid="false"
     inkscape:zoom="7.375"
     inkscape:cx="16"
     inkscape:cy="16"
     inkscape:window-x="1440"
     inkscape:window-y="0"
     inkscape:window-maximized="1"
     inkscape:current-layer="svg12" />
  <rect
     width="21.966103"
     height="21.966103"
     id="rect2"
     x="0"
     y="0.033898305"
     style="fill:#181a21;stroke-width:0.68644071" />
  <rect
     width="21.966103"
     height="0.68644071"
     id="rect4"
     x="0"
     y="0.033898305"
     style="fill:#d6e5fb;fill-opacity:0.1;stroke-width:0.68644071" />
  <g
     id="g10"
     style="opacity:0.7;fill:#d6e5fb"
     transform="matrix(0.68644068,0,0,0.68644068,0,0.03389831)">
    <circle
       cx="16"
       cy="16"
       r="12"
       id="circle6"
       style="opacity:0" />
    <path
       d="M 10,18 11.41,19.41 16,14.82 20.59,19.41 22,18 16,12 Z"
       id="path8"
       inkscape:connector-curvature="0" />
  </g>
</svg>
